design/exu/waveform.vcd
$version Generated by VerilatedVcd $end
$date Tue Dec 14 15:44:02 2021
 $end
$timescale   1ns $end

 $scope module TOP $end
  $var wire  1 o& active_clk $end
  $var wire  1 g& clk $end
  $var wire  1 )' dec_tlu_fast_div_disable $end
  $var wire  1 y' div_stall $end
  $var wire 64 1' dividend [63:0] $end
  $var wire 64 A' divisor [63:0] $end
  $var wire  3 Q' dp [2:0] $end
  $var wire  1 q' finish $end
  $var wire  1 i' finish_early $end
  $var wire  1 Y' flush_lower $end
  $var wire 64 #( out [63:0] $end
  $var wire  1 w& rst_l $end
  $var wire  1 !' scan_mode $end
  $var wire  1 a' valid_ff_e1 $end
  $scope module $unit $end
   $var wire 32 A+ DCCM_BANK_BITS [31:0] $end
   $var wire 32 9+ DCCM_BITS [31:0] $end
   $var wire 32 G* DCCM_BYTE_WIDTH [31:0] $end
   $var wire 32 )+ DCCM_DATA_WIDTH [31:0] $end
   $var wire 32 G* DCCM_ECC_WIDTH [31:0] $end
   $var wire 32 I+ DCCM_FDATA_WIDTH [31:0] $end
   $var wire 32 G* DCCM_NUM_BANKS [31:0] $end
   $var wire 32 O* DEC_INSTBUF_DEPTH [31:0] $end
   $var wire 32 O* DMA_BUF_DEPTH [31:0] $end
   $var wire 32 ?* DMA_BUS_TAG [31:0] $end
   $var wire 32 G* ICACHE_IC_DEPTH [31:0] $end
   $var wire 32 )+ ICACHE_TAG_DEPTH [31:0] $end
   $var wire 32 i+ ICACHE_TAG_HIGH [31:0] $end
   $var wire 32 q+ ICACHE_TAG_LOW [31:0] $end
   $var wire 32 A+ ICCM_BANK_BITS [31:0] $end
   $var wire 32 O* ICCM_BANK_HI [31:0] $end
   $var wire 32 Y+ ICCM_BITS [31:0] $end
   $var wire 32 a+ ICCM_INDEX_BITS [31:0] $end
   $var wire 32 G* ICCM_NUM_BANKS [31:0] $end
   $var wire 32 Q+ ICCM_SIZE [31:0] $end
   $var wire 32 A+ IFU_BUS_TAG [31:0] $end
   $var wire 32 O* LSU_BUS_TAG [31:0] $end
   $var wire 32 G* LSU_RDBUF_DEPTH [31:0] $end
   $var wire 32 9+ LSU_SB_BITS [31:0] $end
   $var wire 32 G* LSU_STBUF_DEPTH [31:0] $end
   $var wire 32 ?* SB_BUS_TAG [31:0] $end
   $var wire 32 1+ TOTAL_INT [31:0] $end
   $var wire 32 )+ XLEN [31:0] $end
  $upscope $end
  $scope module exu_div_ctl $end
   $var wire  5 y# a_cls [4:0] $end
   $var wire 65 k a_eff [64:0] $end
   $var wire 129 %! a_eff_shift [128:0] $end
   $var wire 65 /& a_ff [64:0] $end
   $var wire 64 m! a_ff_comp [63:0] $end
   $var wire 64 C a_ff_eff [63:0] $end
   $var wire 65 A# a_in [64:0] $end
   $var wire 65 S a_shift [64:0] $end
   $var wire  1 o& active_clk $end
   $var wire  1 i# add $end
   $var wire  1 K( aff_enable $end
   $var wire  5 '" b_cls [4:0] $end
   $var wire  1 g& clk $end
   $var wire  8 K$ count [7:0] $end
   $var wire  8 ;( count_in [7:0] $end
   $var wire  1 )' dec_tlu_fast_div_disable $end
   $var wire  1 y' div_stall $end
   $var wire 64 1' dividend [63:0] $end
   $var wire 64 M! dividend_comp [63:0] $end
   $var wire 64 Y# dividend_eff [63:0] $end
   $var wire  1 S$ dividend_neg_ff $end
   $var wire 64 A' divisor [63:0] $end
   $var wire  1 [$ divisor_neg_ff $end
   $var wire  3 Q' dp [2:0] $end
   $var wire  1 q' finish $end
   $var wire  1 i' finish_early $end
   $var wire  1 Y' flush_lower $end
   $var wire  1 s$ flush_lower_ff $end
   $var wire  1 -% m_already_comp $end
   $var wire 65 g" m_eff [64:0] $end
   $var wire 65 ]% m_ff [64:0] $end
   $var wire 64 #( out [63:0] $end
   $var wire 65 u% q_ff [64:0] $end
   $var wire 64 ]! q_ff_comp [63:0] $end
   $var wire 64 3 q_ff_eff [63:0] $end
   $var wire 65 S( q_in [64:0] $end
   $var wire  1 C( qff_enable $end
   $var wire  1 q# rem_correct $end
   $var wire  1 k$ rem_ff $end
   $var wire  1 w& rst_l $end
   $var wire  1 3( run_in $end
   $var wire  1 C$ run_state $end
   $var wire  1 !' scan_mode $end
   $var wire 65 !# short_dividend [64:0] $end
   $var wire  6 7* shortq [5:0] $end
   $var wire  1 +$ shortq_enable $end
   $var wire  1 5% shortq_enable_ff $end
   $var wire  4 3$ shortq_raw [3:0] $end
   $var wire  8 #$ shortq_shift [7:0] $end
   $var wire  8 + shortq_shift_ff [7:0] $end
   $var wire  4 =% shortq_shift_xx [3:0] $end
   $var wire  1 k( sign_eff $end
   $var wire  1 c$ sign_ff $end
   $var wire  4 }! smallnum [3:0] $end
   $var wire  1 9# smallnum_case $end
   $var wire  1 {$ smallnum_case_ff $end
   $var wire  4 %% smallnum_ff [3:0] $end
   $var wire  1 # valid_e1 $end
   $var wire  1 a' valid_ff_e1 $end
   $scope module a_ff_c $end
    $var wire 32 )+ WIDTH [31:0] $end
    $var wire 64 W& din [63:0] $end
    $var wire 64 m! dout [63:0] $end
    $var wire 63 O" dout_temp [63:1] $end
   $upscope $end
   $scope module aff $end
    $var wire 32 g* OVERRIDE [31:0] $end
    $var wire 32 _* WIDTH [31:0] $end
    $var wire  1 g& clk $end
    $var wire 65 A# din [64:0] $end
    $var wire 65 /& dout [64:0] $end
    $var wire  1 K( en $end
    $var wire  1 !+ l1clk $end
    $var wire  1 w& rst_l $end
    $var wire  1 !' scan_mode $end
    $scope module genblock $end
     $scope module dff $end
      $var wire 32 _* WIDTH [31:0] $end
      $var wire  1 g& clk $end
      $var wire 65 A# din [64:0] $end
      $var wire 65 /& dout [64:0] $end
      $var wire  1 K( en $end
      $var wire  1 w& rst_l $end
      $scope module dffs $end
       $var wire 32 _* WIDTH [31:0] $end
       $var wire  1 g& clk $end
       $var wire 65 }) din [64:0] $end
       $var wire 65 /& dout [64:0] $end
       $var wire  1 w& rst_l $end
      $upscope $end
     $upscope $end
    $upscope $end
   $upscope $end
   $scope module countff $end
    $var wire 32 G* WIDTH [31:0] $end
    $var wire  1 o& clk $end
    $var wire  8 ;( din [7:0] $end
    $var wire  8 K$ dout [7:0] $end
    $var wire  1 w& rst_l $end
   $upscope $end
   $scope module dividend_c $end
    $var wire 32 )+ WIDTH [31:0] $end
    $var wire 64 G& din [63:0] $end
    $var wire 64 M! dout [63:0] $end
    $var wire 63 /" dout_temp [63:1] $end
   $upscope $end
   $scope module e1val_ff $end
    $var wire 32 ?* WIDTH [31:0] $end
    $var wire  1 o& clk $end
    $var wire  1 s( din [0:0] $end
    $var wire  1 a' dout [0:0] $end
    $var wire  1 w& rst_l $end
   $upscope $end
   $scope module flush_any_ff $end
    $var wire 32 ?* WIDTH [31:0] $end
    $var wire  1 o& clk $end
    $var wire  1 Y' din [0:0] $end
    $var wire  1 s$ dout [0:0] $end
    $var wire  1 w& rst_l $end
   $upscope $end
   $scope module i_shortq_ff $end
    $var wire 32 W* WIDTH [31:0] $end
    $var wire  1 o& clk $end
    $var wire  5 ;$ din [4:0] $end
    $var wire  5 U% dout [4:0] $end
    $var wire  1 w& rst_l $end
   $upscope $end
   $scope module mff $end
    $var wire 32 g* OVERRIDE [31:0] $end
    $var wire 32 _* WIDTH [31:0] $end
    $var wire  1 g& clk $end
    $var wire 65 5) din [64:0] $end
    $var wire 65 ]% dout [64:0] $end
    $var wire  1 %) en $end
    $var wire  1 o* l1clk $end
    $var wire  1 w& rst_l $end
    $var wire  1 !' scan_mode $end
    $scope module genblock $end
     $scope module dff $end
      $var wire 32 _* WIDTH [31:0] $end
      $var wire  1 g& clk $end
      $var wire 65 5) din [64:0] $end
      $var wire 65 ]% dout [64:0] $end
      $var wire  1 %) en $end
      $var wire  1 w& rst_l $end
      $scope module dffs $end
       $var wire 32 _* WIDTH [31:0] $end
       $var wire  1 g& clk $end
       $var wire 65 M) din [64:0] $end
       $var wire 65 ]% dout [64:0] $end
       $var wire  1 w& rst_l $end
      $upscope $end
     $upscope $end
    $upscope $end
   $upscope $end
   $scope module miscf $end
    $var wire 32 O* WIDTH [31:0] $end
    $var wire  1 o& clk $end
    $var wire  4 {( din [3:0] $end
    $var wire  4 E% dout [3:0] $end
    $var wire  1 %) en $end
    $var wire  1 w& rst_l $end
    $scope module dffs $end
     $var wire 32 O* WIDTH [31:0] $end
     $var wire  1 o& clk $end
     $var wire  4 -) din [3:0] $end
     $var wire  4 E% dout [3:0] $end
     $var wire  1 w& rst_l $end
    $upscope $end
   $upscope $end
   $scope module q_ff_c $end
    $var wire 32 )+ WIDTH [31:0] $end
    $var wire 64 G& din [63:0] $end
    $var wire 64 ]! dout [63:0] $end
    $var wire 63 ?" dout_temp [63:1] $end
   $upscope $end
   $scope module qff $end
    $var wire 32 g* OVERRIDE [31:0] $end
    $var wire 32 _* WIDTH [31:0] $end
    $var wire  1 g& clk $end
    $var wire 65 S( din [64:0] $end
    $var wire 65 u% dout [64:0] $end
    $var wire  1 C( en $end
    $var wire  1 w* l1clk $end
    $var wire  1 w& rst_l $end
    $var wire  1 !' scan_mode $end
    $scope module genblock $end
     $scope module dff $end
      $var wire 32 _* WIDTH [31:0] $end
      $var wire  1 g& clk $end
      $var wire 65 S( din [64:0] $end
      $var wire 65 u% dout [64:0] $end
      $var wire  1 C( en $end
      $var wire  1 w& rst_l $end
      $scope module dffs $end
       $var wire 32 _* WIDTH [31:0] $end
       $var wire  1 g& clk $end
       $var wire 65 e) din [64:0] $end
       $var wire 65 u% dout [64:0] $end
       $var wire  1 w& rst_l $end
      $upscope $end
     $upscope $end
    $upscope $end
   $upscope $end
   $scope module runff $end
    $var wire 32 ?* WIDTH [31:0] $end
    $var wire  1 o& clk $end
    $var wire  1 3( din [0:0] $end
    $var wire  1 C$ dout [0:0] $end
    $var wire  1 w& rst_l $end
   $upscope $end
   $scope module smallnumff $end
    $var wire 32 W* WIDTH [31:0] $end
    $var wire  1 o& clk $end
    $var wire  5 _" din [4:0] $end
    $var wire  5 M% dout [4:0] $end
    $var wire  1 w& rst_l $end
   $upscope $end
  $upscope $end
 $upscope $end
$enddefinitions $end


#0
0#
b00000000 +
b0000000000000000000000000000000000000000000000000000000000000000 3
b0000000000000000000000000000000000000000000000000000000000000000 C
b00000000000000000000000000000000000000000000000000000000000000000 S
b00000000000000000000000000000000000000000000000000000000000000000 k
b000000000000000000000000000000000000000000000000000000000000000000000000000000000000000000000000000000000000000000000000000000000 %!
b0000000000000000000000000000000000000000000000000000000000000000 M!
b0000000000000000000000000000000000000000000000000000000000000000 ]!
b0000000000000000000000000000000000000000000000000000000000000000 m!
b0000 }!
b00000 '"
b000000000000000000000000000000000000000000000000000000000000000 /"
b000000000000000000000000000000000000000000000000000000000000000 ?"
b000000000000000000000000000000000000000000000000000000000000000 O"
b00000 _"
b11111111111111111111111111111111111111111111111111111111111111111 g"
b00000000000000000000000000000000000000000000000000000000000000000 !#
09#
b00000000000000000000000000000000000000000000000000000000000000000 A#
b0000000000000000000000000000000000000000000000000000000000000000 Y#
0i#
0q#
b00000 y#
b00000000 #$
0+$
b0100 3$
b00000 ;$
0C$
b00000000 K$
0S$
0[$
0c$
0k$
0s$
0{$
b0000 %%
0-%
05%
b0000 =%
b0000 E%
b00000 M%
b00000 U%
b00000000000000000000000000000000000000000000000000000000000000000 ]%
b00000000000000000000000000000000000000000000000000000000000000000 u%
b00000000000000000000000000000000000000000000000000000000000000000 /&
b0000000000000000000000000000000000000000000000000000000000000000 G&
b0000000000000000000000000000000000000000000000000000000000000000 W&
1g&
1o&
0w&
0!'
0)'
b0000000000000000000000000000000000000000000000000000011111010000 1'
b0000000000000000000000000000000000000000000000000000000000000011 A'
b000 Q'
1Y'
0a'
0i'
0q'
0y'
b0000000000000000000000000000000000000000000000000000000000000000 #(
03(
b00000000 ;(
0C(
0K(
b00000000000000000000000000000000000000000000000000000011111010000 S(
1k(
0s(
b0010 {(
0%)
b0000 -)
b00000000000000000000000000000000000000000000000000000000000000011 5)
b00000000000000000000000000000000000000000000000000000000000000000 M)
b00000000000000000000000000000000000000000000000000000000000000000 e)
b00000000000000000000000000000000000000000000000000000000000000000 })
b000000 7*
b00000000000000000000000000000001 ?*
b00000000000000000000000000001000 G*
b00000000000000000000000000000100 O*
b00000000000000000000000000000101 W*
b00000000000000000000000001000001 _*
b00000000000000000000000000000000 g*
0o*
0w*
0!+
b00000000000000000000000001000000 )+
b00000000000000000000000000001001 1+
b00000000000000000000000000010001 9+
b00000000000000000000000000000011 A+
b00000000000000000000000001001000 I+
b00000000000000000000001000000000 Q+
b00000000000000000000000000010011 Y+
b00000000000000000000000000001110 a+
b00000000000000000000000000001100 i+
b00000000000000000000000000000110 q+
#1
0g&
0o&
#2
1g&
1o&
#3
0g&
0o&
#4
1g&
1o&
#5
0g&
0o&
#6
1g&
1o&
1w&
0Y'
#7
0g&
0o&
#8
1#
1g&
1o&
b100 Q'
1a'
13(
1C(
1K(
1s(
1%)
b0010 -)
b00000000000000000000000000000000000000000000000000000000000000011 M)
b00000000000000000000000000000000000000000000000000000011111010000 e)
#9
0g&
0o&
#10
0#
b0000000000000000000000000000000000000000000000000000011111010000 3
b000000000000000000000000000000000000000000000000000000000000000000000000000000000000000000000000000000000000000000000011111010000 %!
b1111111111111111111111111111111111111111111111111111100000110000 M!
b1111111111111111111111111111111111111111111111111111100000110000 ]!
b111111111111111111111111111111111111111111111111111110000011000 /"
b111111111111111111111111111111111111111111111111111110000011000 ?"
b11111111111111111111111111111111111111111111111111111111111111100 g"
b00000000000000000000000000000000000000000000000000000011111010000 !#
b11111111111111111111111111111111111111111111111111111111111111101 A#
b0000000000000000000000000000000000000000000000000000011111010000 Y#
b00001 y#
b0010 3$
1C$
1c$
b0010 E%
b00000000000000000000000000000000000000000000000000000000000000011 ]%
b00000000000000000000000000000000000000000000000000000011111010000 u%
b0000000000000000000000000000000000000000000000000000011111010000 G&
1g&
1o&
b000 Q'
0a'
1y'
b0000000000000000000000000000000000000000000000000000011111010000 #(
b00000001 ;(
b00000000000000000000000000000000000000000000000000000111110100000 S(
0s(
0%)
b00000000000000000000000000000000000000000000000000000111110100000 e)
b11111111111111111111111111111111111111111111111111111111111111101 })
#11
0g&
0o&
#12
b0000000000000000000000000000000000000000000000000000111110100000 3
b1111111111111111111111111111111111111111111111111111111111111101 C
b11111111111111111111111111111111111111111111111111111111111111010 S
b11111111111111111111111111111111111111111111111111111111111111010 k
b000000000000000000000000000000000000000000000000000000000000000000000000000000000000000000000000000000000000000000000111110100000 %!
b1111111111111111111111111111111111111111111111111111000001100000 M!
b1111111111111111111111111111111111111111111111111111000001100000 ]!
b0000000000000000000000000000000000000000000000000000000000000011 m!
b111111111111111111111111111111111111111111111111111100000110000 /"
b111111111111111111111111111111111111111111111111111100000110000 ?"
b000000000000000000000000000000000000000000000000000000000000001 O"
b00000000000000000000000000000000000000000000000000000000000000011 g"
b00000000000000000000000000000000000000000000000000000111110100000 !#
b0000000000000000000000000000000000000000000000000000111110100000 Y#
1i#
b00000001 K$
b00000000000000000000000000000000000000000000000000000111110100000 u%
b11111111111111111111111111111111111111111111111111111111111111101 /&
b0000000000000000000000000000000000000000000000000000111110100000 G&
b1111111111111111111111111111111111111111111111111111111111111101 W&
1g&
1o&
b0000000000000000000000000000000000000000000000000000111110100000 #(
b00000010 ;(
b00000000000000000000000000000000000000000000000000001111101000000 S(
b00000000000000000000000000000000000000000000000000001111101000000 e)
#13
0g&
0o&
#14
b0000000000000000000000000000000000000000000000000001111101000000 3
b000000000000000000000000000000000000000000000000000000000000000000000000000000000000000000000000000000000000000000001111101000000 %!
b1111111111111111111111111111111111111111111111111110000011000000 M!
b1111111111111111111111111111111111111111111111111110000011000000 ]!
b111111111111111111111111111111111111111111111111111000001100000 /"
b111111111111111111111111111111111111111111111111111000001100000 ?"
b00000000000000000000000000000000000000000000000000001111101000000 !#
b0000000000000000000000000000000000000000000000000001111101000000 Y#
b00000010 K$
b00000000000000000000000000000000000000000000000000001111101000000 u%
b0000000000000000000000000000000000000000000000000001111101000000 G&
1g&
1o&
b0000000000000000000000000000000000000000000000000001111101000000 #(
b00000011 ;(
b00000000000000000000000000000000000000000000000000011111010000000 S(
b00000000000000000000000000000000000000000000000000011111010000000 e)
#15
0g&
0o&
#16
b0000000000000000000000000000000000000000000000000011111010000000 3
b000000000000000000000000000000000000000000000000000000000000000000000000000000000000000000000000000000000000000000011111010000000 %!
b1111111111111111111111111111111111111111111111111100000110000000 M!
b1111111111111111111111111111111111111111111111111100000110000000 ]!
b111111111111111111111111111111111111111111111111110000011000000 /"
b111111111111111111111111111111111111111111111111110000011000000 ?"
b00000000000000000000000000000000000000000000000000011111010000000 !#
b0000000000000000000000000000000000000000000000000011111010000000 Y#
b00000011 K$
b00000000000000000000000000000000000000000000000000011111010000000 u%
b0000000000000000000000000000000000000000000000000011111010000000 G&
1g&
1o&
b0000000000000000000000000000000000000000000000000011111010000000 #(
b00000100 ;(
b00000000000000000000000000000000000000000000000000111110100000000 S(
b00000000000000000000000000000000000000000000000000111110100000000 e)
#17
0g&
0o&
#18
b0000000000000000000000000000000000000000000000000111110100000000 3
b000000000000000000000000000000000000000000000000000000000000000000000000000000000000000000000000000000000000000000111110100000000 %!
b1111111111111111111111111111111111111111111111111000001100000000 M!
b1111111111111111111111111111111111111111111111111000001100000000 ]!
b111111111111111111111111111111111111111111111111100000110000000 /"
b111111111111111111111111111111111111111111111111100000110000000 ?"
b00000000000000000000000000000000000000000000000000111110100000000 !#
b0000000000000000000000000000000000000000000000000111110100000000 Y#
b00000100 K$
b00000000000000000000000000000000000000000000000000111110100000000 u%
b0000000000000000000000000000000000000000000000000111110100000000 G&
1g&
1o&
b0000000000000000000000000000000000000000000000000111110100000000 #(
b00000101 ;(
b00000000000000000000000000000000000000000000000001111101000000000 S(
b00000000000000000000000000000000000000000000000001111101000000000 e)
#19
0g&
0o&
#20
b0000000000000000000000000000000000000000000000001111101000000000 3
b000000000000000000000000000000000000000000000000000000000000000000000000000000000000000000000000000000000000000001111101000000000 %!
b1111111111111111111111111111111111111111111111110000011000000000 M!
b1111111111111111111111111111111111111111111111110000011000000000 ]!
b111111111111111111111111111111111111111111111111000001100000000 /"
b111111111111111111111111111111111111111111111111000001100000000 ?"
b00000000000000000000000000000000000000000000000001111101000000000 !#
b0000000000000000000000000000000000000000000000001111101000000000 Y#
b00000101 K$
b00000000000000000000000000000000000000000000000001111101000000000 u%
b0000000000000000000000000000000000000000000000001111101000000000 G&
1g&
1o&
b0000000000000000000000000000000000000000000000001111101000000000 #(
b00000110 ;(
b00000000000000000000000000000000000000000000000011111010000000000 S(
b00000000000000000000000000000000000000000000000011111010000000000 e)
#21
0g&
0o&
#22
b0000000000000000000000000000000000000000000000011111010000000000 3
b000000000000000000000000000000000000000000000000000000000000000000000000000000000000000000000000000000000000000011111010000000000 %!
b1111111111111111111111111111111111111111111111100000110000000000 M!
b1111111111111111111111111111111111111111111111100000110000000000 ]!
b111111111111111111111111111111111111111111111110000011000000000 /"
b111111111111111111111111111111111111111111111110000011000000000 ?"
b00000000000000000000000000000000000000000000000011111010000000000 !#
b0000000000000000000000000000000000000000000000011111010000000000 Y#
b00011 y#
b0001 3$
b00000110 K$
b00000000000000000000000000000000000000000000000011111010000000000 u%
b0000000000000000000000000000000000000000000000011111010000000000 G&
1g&
1o&
b0000000000000000000000000000000000000000000000011111010000000000 #(
b00000111 ;(
b00000000000000000000000000000000000000000000000111110100000000000 S(
b00000000000000000000000000000000000000000000000111110100000000000 e)
#23
0g&
0o&
#24
b0000000000000000000000000000000000000000000000111110100000000000 3
b000000000000000000000000000000000000000000000000000000000000000000000000000000000000000000000000000000000000000111110100000000000 %!
b1111111111111111111111111111111111111111111111000001100000000000 M!
b1111111111111111111111111111111111111111111111000001100000000000 ]!
b111111111111111111111111111111111111111111111100000110000000000 /"
b111111111111111111111111111111111111111111111100000110000000000 ?"
b00000000000000000000000000000000000000000000000111110100000000000 !#
b0000000000000000000000000000000000000000000000111110100000000000 Y#
b00000111 K$
b00000000000000000000000000000000000000000000000111110100000000000 u%
b0000000000000000000000000000000000000000000000111110100000000000 G&
1g&
1o&
b0000000000000000000000000000000000000000000000111110100000000000 #(
b00001000 ;(
b00000000000000000000000000000000000000000000001111101000000000000 S(
b00000000000000000000000000000000000000000000001111101000000000000 e)
#25
0g&
0o&
#26
b0000000000000000000000000000000000000000000001111101000000000000 3
b000000000000000000000000000000000000000000000000000000000000000000000000000000000000000000000000000000000000001111101000000000000 %!
b1111111111111111111111111111111111111111111110000011000000000000 M!
b1111111111111111111111111111111111111111111110000011000000000000 ]!
b111111111111111111111111111111111111111111111000001100000000000 /"
b111111111111111111111111111111111111111111111000001100000000000 ?"
b00000000000000000000000000000000000000000000001111101000000000000 !#
b0000000000000000000000000000000000000000000001111101000000000000 Y#
b00001000 K$
b00000000000000000000000000000000000000000000001111101000000000000 u%
b0000000000000000000000000000000000000000000001111101000000000000 G&
1g&
1o&
b0000000000000000000000000000000000000000000001111101000000000000 #(
b00001001 ;(
b00000000000000000000000000000000000000000000011111010000000000000 S(
b00000000000000000000000000000000000000000000011111010000000000000 e)
#27
0g&
0o&
#28
b0000000000000000000000000000000000000000000011111010000000000000 3
b000000000000000000000000000000000000000000000000000000000000000000000000000000000000000000000000000000000000011111010000000000000 %!
b1111111111111111111111111111111111111111111100000110000000000000 M!
b1111111111111111111111111111111111111111111100000110000000000000 ]!
b111111111111111111111111111111111111111111110000011000000000000 /"
b111111111111111111111111111111111111111111110000011000000000000 ?"
b00000000000000000000000000000000000000000000011111010000000000000 !#
b0000000000000000000000000000000000000000000011111010000000000000 Y#
b00001001 K$
b00000000000000000000000000000000000000000000011111010000000000000 u%
b0000000000000000000000000000000000000000000011111010000000000000 G&
1g&
1o&
b0000000000000000000000000000000000000000000011111010000000000000 #(
b00001010 ;(
b00000000000000000000000000000000000000000000111110100000000000000 S(
b00000000000000000000000000000000000000000000111110100000000000000 e)
#29
0g&
0o&
#30
b0000000000000000000000000000000000000000000111110100000000000000 3
b000000000000000000000000000000000000000000000000000000000000000000000000000000000000000000000000000000000000111110100000000000000 %!
b1111111111111111111111111111111111111111111000001100000000000000 M!
b1111111111111111111111111111111111111111111000001100000000000000 ]!
b111111111111111111111111111111111111111111100000110000000000000 /"
b111111111111111111111111111111111111111111100000110000000000000 ?"
b00000000000000000000000000000000000000000000111110100000000000000 !#
b0000000000000000000000000000000000000000000111110100000000000000 Y#
b00001010 K$
b00000000000000000000000000000000000000000000111110100000000000000 u%
b0000000000000000000000000000000000000000000111110100000000000000 G&
1g&
1o&
b0000000000000000000000000000000000000000000111110100000000000000 #(
b00001011 ;(
b00000000000000000000000000000000000000000001111101000000000000000 S(
b00000000000000000000000000000000000000000001111101000000000000000 e)
#31
0g&
0o&
#32
b0000000000000000000000000000000000000000001111101000000000000000 3
b000000000000000000000000000000000000000000000000000000000000000000000000000000000000000000000000000000000001111101000000000000000 %!
b1111111111111111111111111111111111111111110000011000000000000000 M!
b1111111111111111111111111111111111111111110000011000000000000000 ]!
b111111111111111111111111111111111111111111000001100000000000000 /"
b111111111111111111111111111111111111111111000001100000000000000 ?"
b00000000000000000000000000000000000000000001111101000000000000000 !#
b0000000000000000000000000000000000000000001111101000000000000000 Y#
b00001011 K$
b00000000000000000000000000000000000000000001111101000000000000000 u%
b0000000000000000000000000000000000000000001111101000000000000000 G&
1g&
1o&
b0000000000000000000000000000000000000000001111101000000000000000 #(
b00001100 ;(
b00000000000000000000000000000000000000000011111010000000000000000 S(
b00000000000000000000000000000000000000000011111010000000000000000 e)
#33
0g&
0o&
#34
b0000000000000000000000000000000000000000011111010000000000000000 3
b000000000000000000000000000000000000000000000000000000000000000000000000000000000000000000000000000000000011111010000000000000000 %!
b1111111111111111111111111111111111111111100000110000000000000000 M!
b1111111111111111111111111111111111111111100000110000000000000000 ]!
b111111111111111111111111111111111111111110000011000000000000000 /"
b111111111111111111111111111111111111111110000011000000000000000 ?"
b00000000000000000000000000000000000000000011111010000000000000000 !#
b0000000000000000000000000000000000000000011111010000000000000000 Y#
b00010 y#
b00001100 K$
b00000000000000000000000000000000000000000011111010000000000000000 u%
b0000000000000000000000000000000000000000011111010000000000000000 G&
1g&
1o&
b0000000000000000000000000000000000000000011111010000000000000000 #(
b00001101 ;(
b00000000000000000000000000000000000000000111110100000000000000000 S(
b00000000000000000000000000000000000000000111110100000000000000000 e)
#35
0g&
0o&
#36
b0000000000000000000000000000000000000000111110100000000000000000 3
b000000000000000000000000000000000000000000000000000000000000000000000000000000000000000000000000000000000111110100000000000000000 %!
b1111111111111111111111111111111111111111000001100000000000000000 M!
b1111111111111111111111111111111111111111000001100000000000000000 ]!
b111111111111111111111111111111111111111100000110000000000000000 /"
b111111111111111111111111111111111111111100000110000000000000000 ?"
b00000000000000000000000000000000000000000111110100000000000000000 !#
b0000000000000000000000000000000000000000111110100000000000000000 Y#
b00001101 K$
b00000000000000000000000000000000000000000111110100000000000000000 u%
b0000000000000000000000000000000000000000111110100000000000000000 G&
1g&
1o&
b0000000000000000000000000000000000000000111110100000000000000000 #(
b00001110 ;(
b00000000000000000000000000000000000000001111101000000000000000000 S(
b00000000000000000000000000000000000000001111101000000000000000000 e)
#37
0g&
0o&
#38
b0000000000000000000000000000000000000001111101000000000000000000 3
b000000000000000000000000000000000000000000000000000000000000000000000000000000000000000000000000000000001111101000000000000000000 %!
b1111111111111111111111111111111111111110000011000000000000000000 M!
b1111111111111111111111111111111111111110000011000000000000000000 ]!
b111111111111111111111111111111111111111000001100000000000000000 /"
b111111111111111111111111111111111111111000001100000000000000000 ?"
b00000000000000000000000000000000000000001111101000000000000000000 !#
b0000000000000000000000000000000000000001111101000000000000000000 Y#
b00110 y#
b0000 3$
b00001110 K$
b00000000000000000000000000000000000000001111101000000000000000000 u%
b0000000000000000000000000000000000000001111101000000000000000000 G&
1g&
1o&
b0000000000000000000000000000000000000001111101000000000000000000 #(
b00001111 ;(
b00000000000000000000000000000000000000011111010000000000000000000 S(
b00000000000000000000000000000000000000011111010000000000000000000 e)
#39
0g&
0o&
#40
b0000000000000000000000000000000000000011111010000000000000000000 3
b000000000000000000000000000000000000000000000000000000000000000000000000000000000000000000000000000000011111010000000000000000000 %!
b1111111111111111111111111111111111111100000110000000000000000000 M!
b1111111111111111111111111111111111111100000110000000000000000000 ]!
b111111111111111111111111111111111111110000011000000000000000000 /"
b111111111111111111111111111111111111110000011000000000000000000 ?"
b00000000000000000000000000000000000000011111010000000000000000000 !#
b0000000000000000000000000000000000000011111010000000000000000000 Y#
b00001111 K$
b00000000000000000000000000000000000000011111010000000000000000000 u%
b0000000000000000000000000000000000000011111010000000000000000000 G&
1g&
1o&
b0000000000000000000000000000000000000011111010000000000000000000 #(
b00010000 ;(
b00000000000000000000000000000000000000111110100000000000000000000 S(
b00000000000000000000000000000000000000111110100000000000000000000 e)
#41
0g&
0o&
#42
b0000000000000000000000000000000000000111110100000000000000000000 3
b000000000000000000000000000000000000000000000000000000000000000000000000000000000000000000000000000000111110100000000000000000000 %!
b1111111111111111111111111111111111111000001100000000000000000000 M!
b1111111111111111111111111111111111111000001100000000000000000000 ]!
b111111111111111111111111111111111111100000110000000000000000000 /"
b111111111111111111111111111111111111100000110000000000000000000 ?"
b00000000000000000000000000000000000000111110100000000000000000000 !#
b0000000000000000000000000000000000000111110100000000000000000000 Y#
b00010000 K$
b00000000000000000000000000000000000000111110100000000000000000000 u%
b0000000000000000000000000000000000000111110100000000000000000000 G&
1g&
1o&
b0000000000000000000000000000000000000111110100000000000000000000 #(
b00010001 ;(
b00000000000000000000000000000000000001111101000000000000000000000 S(
b00000000000000000000000000000000000001111101000000000000000000000 e)
#43
0g&
0o&
#44
b0000000000000000000000000000000000001111101000000000000000000000 3
b000000000000000000000000000000000000000000000000000000000000000000000000000000000000000000000000000001111101000000000000000000000 %!
b1111111111111111111111111111111111110000011000000000000000000000 M!
b1111111111111111111111111111111111110000011000000000000000000000 ]!
b111111111111111111111111111111111111000001100000000000000000000 /"
b111111111111111111111111111111111111000001100000000000000000000 ?"
b00000000000000000000000000000000000001111101000000000000000000000 !#
b0000000000000000000000000000000000001111101000000000000000000000 Y#
b00010001 K$
b00000000000000000000000000000000000001111101000000000000000000000 u%
b0000000000000000000000000000000000001111101000000000000000000000 G&
1g&
1o&
b0000000000000000000000000000000000001111101000000000000000000000 #(
b00010010 ;(
b00000000000000000000000000000000000011111010000000000000000000000 S(
b00000000000000000000000000000000000011111010000000000000000000000 e)
#45
0g&
0o&
#46
b0000000000000000000000000000000000011111010000000000000000000000 3
b000000000000000000000000000000000000000000000000000000000000000000000000000000000000000000000000000011111010000000000000000000000 %!
b1111111111111111111111111111111111100000110000000000000000000000 M!
b1111111111111111111111111111111111100000110000000000000000000000 ]!
b111111111111111111111111111111111110000011000000000000000000000 /"
b111111111111111111111111111111111110000011000000000000000000000 ?"
b00000000000000000000000000000000000011111010000000000000000000000 !#
b0000000000000000000000000000000000011111010000000000000000000000 Y#
b00010010 K$
b00000000000000000000000000000000000011111010000000000000000000000 u%
b0000000000000000000000000000000000011111010000000000000000000000 G&
1g&
1o&
b0000000000000000000000000000000000011111010000000000000000000000 #(
b00010011 ;(
b00000000000000000000000000000000000111110100000000000000000000000 S(
b00000000000000000000000000000000000111110100000000000000000000000 e)
#47
0g&
0o&
